\babel@toc {spanish}{}
\contentsline {chapter}{\numberline {1}Introducci\IeC {\'o}n}{1}{chapter.1}
\contentsline {section}{\numberline {1.1}Objetivos}{1}{section.1.1}
\contentsline {section}{\numberline {1.2}Materiales e instrumentales necesarios}{1}{section.1.2}
\contentsline {section}{\numberline {1.3}Procedimiento}{1}{section.1.3}
\contentsline {section}{\numberline {1.4}Datos adicionales}{2}{section.1.4}
\contentsline {subsection}{Generaci\IeC {\'o}n}{3}{section*.4}
\contentsline {subsection}{Detecci\IeC {\'o}n}{4}{section*.6}
\contentsline {chapter}{\numberline {2}Desarrollo}{6}{chapter.2}
\contentsline {section}{\numberline {2.1}Imagenes capturadas}{6}{section.2.1}
\contentsline {chapter}{\numberline {3}Conclusi\IeC {\'o}n}{9}{chapter.3}
