\relax 
\providecommand\hyper@newdestlabel[2]{}
\catcode `"\active 
\catcode `<\active 
\catcode `>\active 
\@nameuse{es@quoting}
\catcode `'\active 
\providecommand\HyperFirstAtBeginDocument{\AtBeginDocument}
\HyperFirstAtBeginDocument{\ifx\hyper@anchor\@undefined
\global\let\oldcontentsline\contentsline
\gdef\contentsline#1#2#3#4{\oldcontentsline{#1}{#2}{#3}}
\global\let\oldnewlabel\newlabel
\gdef\newlabel#1#2{\newlabelxx{#1}#2}
\gdef\newlabelxx#1#2#3#4#5#6{\oldnewlabel{#1}{{#2}{#3}}}
\AtEndDocument{\ifx\hyper@anchor\@undefined
\let\contentsline\oldcontentsline
\let\newlabel\oldnewlabel
\fi}
\fi}
\global\let\hyper@last\relax 
\gdef\HyperFirstAtBeginDocument#1{#1}
\providecommand\HyField@AuxAddToFields[1]{}
\providecommand\HyField@AuxAddToCoFields[2]{}
\providecommand \oddpage@label [2]{}
\babel@aux{spanish}{}
\@writefile{toc}{\contentsline {chapter}{\numberline {1}Introducci\IeC {\'o}n}{1}{chapter.1}}
\@writefile{lof}{\addvspace {10\p@ }}
\@writefile{lot}{\addvspace {10\p@ }}
\@writefile{toc}{\contentsline {section}{\numberline {1.1}Objetivos}{1}{section.1.1}}
\@writefile{toc}{\contentsline {section}{\numberline {1.2}Materiales e instrumentales necesarios}{1}{section.1.2}}
\@writefile{toc}{\contentsline {section}{\numberline {1.3}Procedimiento}{1}{section.1.3}}
\@writefile{lof}{\contentsline {figure}{\numberline {1.1}{\ignorespaces Kit modulador/demodulador AM provisto por la c\IeC {\'a}tedra\relax }}{2}{figure.caption.2}}
\@writefile{toc}{\contentsline {section}{\numberline {1.4}Datos adicionales}{2}{section.1.4}}
\@writefile{lof}{\contentsline {figure}{\numberline {1.2}{\ignorespaces Procedimiento de calibraci\IeC {\'o}n (compensaci\IeC {\'o}n) de puntas de pruebas\relax }}{3}{figure.caption.3}}
\@writefile{toc}{\contentsline {subsection}{Generaci\IeC {\'o}n}{3}{section*.4}}
\@writefile{lof}{\contentsline {figure}{\numberline {1.3}{\ignorespaces Esquema y simulaci\IeC {\'o}n de modulador AM con doble banda lateral y portadora suprimida\relax }}{4}{figure.caption.5}}
\@writefile{toc}{\contentsline {subsection}{Detecci\IeC {\'o}n}{4}{section*.6}}
\@writefile{toc}{\contentsline {chapter}{\numberline {2}Desarrollo}{6}{chapter.2}}
\@writefile{lof}{\addvspace {10\p@ }}
\@writefile{lot}{\addvspace {10\p@ }}
\@writefile{toc}{\contentsline {section}{\numberline {2.1}Imagenes capturadas}{6}{section.2.1}}
\@writefile{lof}{\contentsline {figure}{\numberline {2.1}{\ignorespaces Oscilograma de se\IeC {\~n}al portadora y modulante.\relax }}{6}{figure.caption.7}}
\@writefile{lof}{\contentsline {figure}{\numberline {2.2}{\ignorespaces Oscilograma de se\IeC {\~n}al \textbf  {modulada}.\relax }}{7}{figure.caption.8}}
\@writefile{lof}{\contentsline {figure}{\numberline {2.3}{\ignorespaces Oscilograma de se\IeC {\~n}al \textbf  {submodulada}.\relax }}{7}{figure.caption.9}}
\@writefile{lof}{\contentsline {figure}{\numberline {2.4}{\ignorespaces Espectro de frecuencia de se\IeC {\~n}al AM con doble banda lateral y portadora suprimida.\relax }}{8}{figure.caption.10}}
\@writefile{lof}{\contentsline {figure}{\numberline {2.5}{\ignorespaces Espectro de frecuencia de se\IeC {\~n}al AM \textbf  {sobremodulada} con doble banda lateral y portadora suprimida.\relax }}{8}{figure.caption.11}}
\@writefile{toc}{\contentsline {chapter}{\numberline {3}Conclusi\IeC {\'o}n}{9}{chapter.3}}
\@writefile{lof}{\addvspace {10\p@ }}
\@writefile{lot}{\addvspace {10\p@ }}
