\relax 
\providecommand\hyper@newdestlabel[2]{}
\catcode `"\active 
\catcode `<\active 
\catcode `>\active 
\@nameuse{es@quoting}
\catcode `'\active 
\providecommand\HyperFirstAtBeginDocument{\AtBeginDocument}
\HyperFirstAtBeginDocument{\ifx\hyper@anchor\@undefined
\global\let\oldcontentsline\contentsline
\gdef\contentsline#1#2#3#4{\oldcontentsline{#1}{#2}{#3}}
\global\let\oldnewlabel\newlabel
\gdef\newlabel#1#2{\newlabelxx{#1}#2}
\gdef\newlabelxx#1#2#3#4#5#6{\oldnewlabel{#1}{{#2}{#3}}}
\AtEndDocument{\ifx\hyper@anchor\@undefined
\let\contentsline\oldcontentsline
\let\newlabel\oldnewlabel
\fi}
\fi}
\global\let\hyper@last\relax 
\gdef\HyperFirstAtBeginDocument#1{#1}
\providecommand\HyField@AuxAddToFields[1]{}
\providecommand\HyField@AuxAddToCoFields[2]{}
\providecommand \oddpage@label [2]{}
\babel@aux{spanish}{}
\@writefile{toc}{\contentsline {chapter}{\numberline {1}Introducci\IeC {\'o}n}{1}{chapter.1}}
\@writefile{lof}{\addvspace {10\p@ }}
\@writefile{lot}{\addvspace {10\p@ }}
\@writefile{toc}{\contentsline {chapter}{\numberline {2}Desarrollo}{2}{chapter.2}}
\@writefile{lof}{\addvspace {10\p@ }}
\@writefile{lot}{\addvspace {10\p@ }}
\@writefile{lof}{\contentsline {figure}{\numberline {2.1}{\ignorespaces Placa Moduladora-Demoduladora\relax }}{2}{figure.caption.2}}
\providecommand*\caption@xref[2]{\@setref\relax\@undefined{#1}}
\newlabel{fig:placaModDemo}{{2.1}{2}{Placa Moduladora-Demoduladora\relax }{figure.caption.2}{}}
\@writefile{toc}{\contentsline {section}{\numberline {2.1}Grados de modulaci\IeC {\'o}n}{2}{section.2.1}}
\@writefile{toc}{\contentsline {subsection}{Banda base y Portadora}{3}{section*.3}}
\@writefile{lof}{\contentsline {figure}{\numberline {2.2}{\ignorespaces Banda base (Superior) y Portadora (Inferior)\relax }}{3}{figure.caption.4}}
\newlabel{fig:t1i1}{{2.2}{3}{Banda base (Superior) y Portadora (Inferior)\relax }{figure.caption.4}{}}
\@writefile{toc}{\contentsline {subsection}{Se\IeC {\~n}al Modulada y Portadora}{3}{section*.5}}
\@writefile{lof}{\contentsline {figure}{\numberline {2.3}{\ignorespaces Se\IeC {\~n}al modulada (Superior) y Portadora (Inferior)\relax }}{3}{figure.caption.6}}
\newlabel{fig:t1i12}{{2.3}{3}{Señal modulada (Superior) y Portadora (Inferior)\relax }{figure.caption.6}{}}
\@writefile{toc}{\contentsline {subsection}{Modulaci\IeC {\'o}n al 100$\%$}{3}{section*.7}}
\@writefile{lof}{\contentsline {figure}{\numberline {2.4}{\ignorespaces Se\IeC {\~n}al modulada al 100\% - Dominio del tiempo\relax }}{4}{figure.caption.8}}
\newlabel{fig:t1i3}{{2.4}{4}{Señal modulada al 100\% - Dominio del tiempo\relax }{figure.caption.8}{}}
\@writefile{lof}{\contentsline {figure}{\numberline {2.5}{\ignorespaces Se\IeC {\~n}al modulada al 100\% - Dominio de la frecuencia\relax }}{4}{figure.caption.9}}
\newlabel{fig:t1i4}{{2.5}{4}{Señal modulada al 100\% - Dominio de la frecuencia\relax }{figure.caption.9}{}}
\@writefile{toc}{\contentsline {subsection}{Submodulaci\IeC {\'o}n}{4}{section*.10}}
\@writefile{lof}{\contentsline {figure}{\numberline {2.6}{\ignorespaces Se\IeC {\~n}al en modulaci\IeC {\'o}n menor al 100\% - Dominio del tiempo\relax }}{5}{figure.caption.11}}
\newlabel{fig:t1i5}{{2.6}{5}{Señal en modulación menor al 100\% - Dominio del tiempo\relax }{figure.caption.11}{}}
\@writefile{lof}{\contentsline {figure}{\numberline {2.7}{\ignorespaces Se\IeC {\~n}al con modulaci\IeC {\'o}n menor al 100\% - Dominio de la frecuencia\relax }}{5}{figure.caption.12}}
\newlabel{fig:t1i6}{{2.7}{5}{Señal con modulación menor al 100\% - Dominio de la frecuencia\relax }{figure.caption.12}{}}
\@writefile{toc}{\contentsline {subsection}{Sobremodulaci\IeC {\'o}n}{5}{section*.13}}
\@writefile{lof}{\contentsline {figure}{\numberline {2.8}{\ignorespaces Se\IeC {\~n}al con sobremodulaci\IeC {\'o}n - Dominio del tiempo\relax }}{6}{figure.caption.14}}
\newlabel{fig:t1i7}{{2.8}{6}{Señal con sobremodulación - Dominio del tiempo\relax }{figure.caption.14}{}}
\@writefile{lof}{\contentsline {figure}{\numberline {2.9}{\ignorespaces Se\IeC {\~n}al con sobremodulaci\IeC {\'o}n - Dominio de la frecuencia\relax }}{6}{figure.caption.15}}
\newlabel{fig:t1i8}{{2.9}{6}{Señal con sobremodulación - Dominio de la frecuencia\relax }{figure.caption.15}{}}
\@writefile{toc}{\contentsline {section}{\numberline {2.2}Aproximaci\IeC {\'o}n en frecuencia de modulante a portadora}{6}{section.2.2}}
\@writefile{lof}{\contentsline {figure}{\numberline {2.10}{\ignorespaces Distorsi\IeC {\'o}n de la se\IeC {\~n}al modulada - Dominio del tiempo\relax }}{7}{figure.caption.16}}
\newlabel{fig:t1i9}{{2.10}{7}{Distorsión de la señal modulada - Dominio del tiempo\relax }{figure.caption.16}{}}
\@writefile{lof}{\contentsline {figure}{\numberline {2.11}{\ignorespaces Distorsi\IeC {\'o}n de la se\IeC {\~n}al modulada - Dominio de la frecuencia\relax }}{7}{figure.caption.17}}
\newlabel{fig:t1i10}{{2.11}{7}{Distorsión de la señal modulada - Dominio de la frecuencia\relax }{figure.caption.17}{}}
\@writefile{toc}{\contentsline {section}{\numberline {2.3}Demodulaci\IeC {\'o}n}{7}{section.2.3}}
\@writefile{lof}{\contentsline {figure}{\numberline {2.12}{\ignorespaces Se\IeC {\~n}al demodulada - Dominio del tiempo\relax }}{8}{figure.caption.18}}
\newlabel{fig:t1i11}{{2.12}{8}{Señal demodulada - Dominio del tiempo\relax }{figure.caption.18}{}}
\@writefile{lof}{\contentsline {figure}{\numberline {2.13}{\ignorespaces Se\IeC {\~n}al demodulada - Dominio de la frecuencia\relax }}{8}{figure.caption.19}}
\newlabel{fig:t1i12}{{2.13}{8}{Señal demodulada - Dominio de la frecuencia\relax }{figure.caption.19}{}}
\@writefile{toc}{\contentsline {chapter}{\numberline {3}Conclusi\IeC {\'o}n}{9}{chapter.3}}
\@writefile{lof}{\addvspace {10\p@ }}
\@writefile{lot}{\addvspace {10\p@ }}
