\babel@toc {spanish}{}
\contentsline {chapter}{\numberline {1}Introducci\IeC {\'o}n}{1}{chapter.1}
\contentsline {chapter}{\numberline {2}Desarrollo}{2}{chapter.2}
\contentsline {section}{\numberline {2.1}Grados de modulaci\IeC {\'o}n}{2}{section.2.1}
\contentsline {subsection}{Banda base y Portadora}{3}{section*.3}
\contentsline {subsection}{Se\IeC {\~n}al Modulada y Portadora}{3}{section*.5}
\contentsline {subsection}{Modulaci\IeC {\'o}n al 100$\%$}{3}{section*.7}
\contentsline {subsection}{Submodulaci\IeC {\'o}n}{4}{section*.10}
\contentsline {subsection}{Sobremodulaci\IeC {\'o}n}{5}{section*.13}
\contentsline {section}{\numberline {2.2}Aproximaci\IeC {\'o}n en frecuencia de modulante a portadora}{6}{section.2.2}
\contentsline {section}{\numberline {2.3}Demodulaci\IeC {\'o}n}{7}{section.2.3}
\contentsline {chapter}{\numberline {3}Conclusi\IeC {\'o}n}{9}{chapter.3}
