\relax 
\providecommand\hyper@newdestlabel[2]{}
\catcode `"\active 
\catcode `<\active 
\catcode `>\active 
\@nameuse{es@quoting}
\catcode `'\active 
\providecommand\HyperFirstAtBeginDocument{\AtBeginDocument}
\HyperFirstAtBeginDocument{\ifx\hyper@anchor\@undefined
\global\let\oldcontentsline\contentsline
\gdef\contentsline#1#2#3#4{\oldcontentsline{#1}{#2}{#3}}
\global\let\oldnewlabel\newlabel
\gdef\newlabel#1#2{\newlabelxx{#1}#2}
\gdef\newlabelxx#1#2#3#4#5#6{\oldnewlabel{#1}{{#2}{#3}}}
\AtEndDocument{\ifx\hyper@anchor\@undefined
\let\contentsline\oldcontentsline
\let\newlabel\oldnewlabel
\fi}
\fi}
\global\let\hyper@last\relax 
\gdef\HyperFirstAtBeginDocument#1{#1}
\providecommand\HyField@AuxAddToFields[1]{}
\providecommand\HyField@AuxAddToCoFields[2]{}
\providecommand \oddpage@label [2]{}
\babel@aux{spanish}{}
\@writefile{toc}{\contentsline {chapter}{\numberline {1}Introducci\IeC {\'o}n}{1}{chapter.1}}
\@writefile{lof}{\addvspace {10\p@ }}
\@writefile{lot}{\addvspace {10\p@ }}
\@writefile{toc}{\contentsline {section}{\numberline {1.1}Objetivo}{1}{section.1.1}}
\@writefile{toc}{\contentsline {section}{\numberline {1.2}Implementaci\IeC {\'o}n}{1}{section.1.2}}
\@writefile{toc}{\contentsline {section}{\numberline {1.3}Desarrollo (en tiempo y frecuencia)}{1}{section.1.3}}
\@writefile{toc}{\contentsline {section}{\numberline {1.4}Presentaci\IeC {\'o}n}{2}{section.1.4}}
\@writefile{toc}{\contentsline {section}{\numberline {1.5}Puntos de medici\IeC {\'o}n (relacionados con el esquema de implementaci\IeC {\'o}n)}{2}{section.1.5}}
\@writefile{lof}{\contentsline {figure}{\numberline {1.1}{\ignorespaces Puntos de mediciones\relax }}{2}{figure.caption.3}}
