\babel@toc {spanish}{}
\contentsline {chapter}{\numberline {1}Introducci\IeC {\'o}n}{1}{chapter.1}
\contentsline {section}{\numberline {1.1}Objetivo}{1}{section.1.1}
\contentsline {section}{\numberline {1.2}Implementaci\IeC {\'o}n}{1}{section.1.2}
\contentsline {section}{\numberline {1.3}Desarrollo (en tiempo y frecuencia)}{1}{section.1.3}
\contentsline {section}{\numberline {1.4}Presentaci\IeC {\'o}n}{2}{section.1.4}
\contentsline {section}{\numberline {1.5}Puntos de medici\IeC {\'o}n (relacionados con el esquema de implementaci\IeC {\'o}n)}{2}{section.1.5}
