\relax 
\providecommand\hyper@newdestlabel[2]{}
\catcode `"\active 
\catcode `<\active 
\catcode `>\active 
\@nameuse{es@quoting}
\catcode `'\active 
\providecommand\HyperFirstAtBeginDocument{\AtBeginDocument}
\HyperFirstAtBeginDocument{\ifx\hyper@anchor\@undefined
\global\let\oldcontentsline\contentsline
\gdef\contentsline#1#2#3#4{\oldcontentsline{#1}{#2}{#3}}
\global\let\oldnewlabel\newlabel
\gdef\newlabel#1#2{\newlabelxx{#1}#2}
\gdef\newlabelxx#1#2#3#4#5#6{\oldnewlabel{#1}{{#2}{#3}}}
\AtEndDocument{\ifx\hyper@anchor\@undefined
\let\contentsline\oldcontentsline
\let\newlabel\oldnewlabel
\fi}
\fi}
\global\let\hyper@last\relax 
\gdef\HyperFirstAtBeginDocument#1{#1}
\providecommand\HyField@AuxAddToFields[1]{}
\providecommand\HyField@AuxAddToCoFields[2]{}
\providecommand \oddpage@label [2]{}
\babel@aux{spanish}{}
\@writefile{toc}{\contentsline {chapter}{\numberline {1}Introducci\IeC {\'o}n}{1}{chapter.1}}
\@writefile{lof}{\addvspace {10\p@ }}
\@writefile{lot}{\addvspace {10\p@ }}
\@writefile{toc}{\contentsline {section}{\numberline {1.1}Objetivo}{1}{section.1.1}}
\@writefile{toc}{\contentsline {section}{\numberline {1.2}Implementaci\IeC {\'o}n}{1}{section.1.2}}
\@writefile{toc}{\contentsline {section}{\numberline {1.3}Desarrollo (en tiempo y frecuencia)}{1}{section.1.3}}
\@writefile{toc}{\contentsline {section}{\numberline {1.4}Presentaci\IeC {\'o}n}{1}{section.1.4}}
\@writefile{toc}{\contentsline {section}{\numberline {1.5}Puntos de medici\IeC {\'o}n (relacionados con el esquema de implementaci\IeC {\'o}n)}{2}{section.1.5}}
\@writefile{lof}{\contentsline {figure}{\numberline {1.1}{\ignorespaces Punto de medici\IeC {\'o}n A.\relax }}{2}{figure.caption.2}}
\@writefile{lof}{\contentsline {figure}{\numberline {1.2}{\ignorespaces Punto de medici\IeC {\'o}n B (azul), C (naranja), D (verde).\relax }}{2}{figure.caption.3}}
\@writefile{toc}{\contentsline {chapter}{\numberline {2}Capturas}{3}{chapter.2}}
\@writefile{lof}{\addvspace {10\p@ }}
\@writefile{lot}{\addvspace {10\p@ }}
\@writefile{toc}{\contentsline {section}{\numberline {2.1}Esquem\IeC {\'a}tico de simulaci\IeC {\'o}n}{3}{section.2.1}}
\@writefile{lof}{\contentsline {figure}{\numberline {2.1}{\ignorespaces Esquem\IeC {\'a}tico de simulaci\IeC {\'o}n con bloques jer\IeC {\'a}rquicos.\relax }}{3}{figure.caption.4}}
\@writefile{toc}{\contentsline {section}{\numberline {2.2}\IeC {\'I}ndice de modulaci\IeC {\'o}n = 5}{4}{section.2.2}}
\@writefile{lof}{\contentsline {figure}{\numberline {2.2}{\ignorespaces Oscilogramas con \IeC {\'\i }ndice de modulaci\IeC {\'o}n = 5\relax }}{4}{figure.caption.5}}
\@writefile{lof}{\contentsline {figure}{\numberline {2.3}{\ignorespaces Espectro de frecuencias con \IeC {\'\i }ndice de modulaci\IeC {\'o}n = 5\relax }}{5}{figure.caption.6}}
\@writefile{toc}{\contentsline {section}{\numberline {2.3}\IeC {\'I}ndice de modulaci\IeC {\'o}n = 25}{6}{section.2.3}}
\@writefile{lof}{\contentsline {figure}{\numberline {2.4}{\ignorespaces Oscilogramas con \IeC {\'\i }ndice de modulaci\IeC {\'o}n = 25\relax }}{6}{figure.caption.7}}
\@writefile{lof}{\contentsline {figure}{\numberline {2.5}{\ignorespaces Espectro de frecuencias con \IeC {\'\i }ndice de modulaci\IeC {\'o}n = 25\relax }}{7}{figure.caption.8}}
\@writefile{toc}{\contentsline {section}{\numberline {2.4}\IeC {\'I}ndice de modulaci\IeC {\'o}n = 30}{8}{section.2.4}}
\@writefile{lof}{\contentsline {figure}{\numberline {2.6}{\ignorespaces Oscilogramas con \IeC {\'\i }ndice de modulaci\IeC {\'o}n = 30\relax }}{8}{figure.caption.9}}
\@writefile{lof}{\contentsline {figure}{\numberline {2.7}{\ignorespaces Espectro de frecuencias con \IeC {\'\i }ndice de modulaci\IeC {\'o}n = 30\relax }}{9}{figure.caption.10}}
